Made by hype.rreell.es.

 _   ___   _______ _____ ____________ _____ _____ _      _       _____ _____
| | | \ \ / / ___ \  ___|| ___ \ ___ \  ___|  ___| |    | |     |  ___/  ___|
| |_| |\ V /| |_/ / |__  | |_/ / |_/ / |__ | |__ | |    | |     | |__ \ `--.
|  _  | \ / |  __/|  __| |    /|    /|  __||  __|| |    | |     |  __| `--. \
| | | | | | | |   | |____| |\ \| |\ \| |___| |___| |____| |_____| |___/\__/ /
\_| |_/ \_/ \_|   \____(_)_| \_\_| \_\____/\____/\_____/\_____(_)____/\____/

